Discovered open port 8843/tcp on 10.129.229.248                                
Discovered open port 8880/tcp on 10.129.229.248                                
Discovered open port 8080/tcp on 10.129.229.248                                
Discovered open port 6789/tcp on 10.129.229.248                                
Discovered open port 22/tcp on 10.129.229.248                                  
Discovered open port 8443/tcp on 10.129.229.248                                
